NATOLab15
…
## # A tibble: 35 x 4
##     Year     n num_entries   prop
##    <dbl> <int>       <int>  <dbl>
##  1  1896    50         380 0.132 
##  2  1900   155        1936 0.0801
##  3  1904   134        1301 0.103 
##  4  1906   137        1733 0.0791
##  5  1908   428        3101 0.138 
##  6  1912   691        4040 0.171 
##  7  1920   394        4292 0.0918
##  8  1924   673        5693 0.118 
##  9  1928   829        5574 0.149 
## 10  1932   381        3321 0.115 
## # ... with 25 more rows
…
see <- sassy %>% filter(Year < 1970)
## 68 countries did not partake in 1980 olympics # near the end of the cold war

Findings:

New Tools:

Ryans Section

Subquestion: In 1980, how does height affect winnings for Canoeing sports?

Importance / Relation to Overall Question: You would think that height would affect the performance of Canoeing Sports, as taller someone is, the more likely they are to have long, strong strokes.

## # A tibble: 108 x 3
## # Groups:   Event [27]
##    Event                                          Medal        n
##    <chr>                                          <chr>    <int>
##  1 Canoeing Men's Canadian Doubles, 1,000 metres  Bronze      38
##  2 Canoeing Men's Canadian Doubles, 1,000 metres  Gold        38
##  3 Canoeing Men's Canadian Doubles, 1,000 metres  No Medal   354
##  4 Canoeing Men's Canadian Doubles, 1,000 metres  Silver      38
##  5 Canoeing Men's Canadian Doubles, 10,000 metres Bronze       8
##  6 Canoeing Men's Canadian Doubles, 10,000 metres Gold         8
##  7 Canoeing Men's Canadian Doubles, 10,000 metres No Medal    36
##  8 Canoeing Men's Canadian Doubles, 10,000 metres Silver       8
##  9 Canoeing Men's Canadian Doubles, 500 metres    Bronze      18
## 10 Canoeing Men's Canadian Doubles, 500 metres    Gold        18
## # ... with 98 more rows
…
